{
  "globalDevDependencies": {
    "jasmine": "registry:dt/jasmine#2.2.0+20160412134438"
  },
  "globalDependencies": {
    "es6-shim": "registry:dt/es6-shim#0.31.2+20160317120654",
    "jquery": "registry:dt/jquery#1.10.0+20160417213236",
    "materialize-css": "registry:dt/materialize-css#0.97.5+20160317120654",
    "node": "registry:dt/node#4.0.0+20160501135006"
  }
}
